Valsalva 1 IMF4 start sample # : 114
Valsalva 2 IMF4 start sample # : 104
Valsalva 3 IMF4 start sample # : 112
Valsalva 1 IMF4 stop sample # : 564
Valsalva 2 IMF4 stop sample # : 524
Valsalva 3 IMF4 stop sample # : 585
